[
	{
		"full_name": "ТОВАРИСТВО З ОБМЕЖЕНОЮ ВІДПОВІДАЛЬНІСТЮ \"ВЕРЕСТ\"",
		"short_name": "ТОВ \"ВЕРЕСТ\"",
		"code": "23846567",
		"ceo_name": "Страхоцінський Віктор Вікторович",
		"location": "Україна, 32460, Хмельницька обл., Дунаєвецький р-н, село Гірчична, ВУЛИЦЯ ЦЕНТРАЛЬНА, будинок 16",
		"activities": "10.11 Виробництво м'яса",
		"status": "зареєстровано",
		"beneficiaries": [
			{
				"title": "СТРАХОЦІНСЬКИЙ ВІКТОР ВІКТОРОВИЧ",
				"location": "Україна, 32400, Хмельницька обл., Дунаєвецький р-н, місто Дунаївці(з), вул.Іщенка Миколи, будинок 26",
				"capital": 21000000,
				"role": "засновник"
			},
			{
				"title": "БЕРНАШЕВСЬКИЙ ОЛЕКСАНДР ВЯЧЕСЛАВОВИЧ",
				"location": "Україна, 32400, Хмельницька обл., Дунаєвецький р-н, місто Дунаївці(з), вул.Червона, будинок 33",
				"capital": 20000000,
				"role": "засновник"
			},
			{
				"title": "БЕРНАШЕВСЬКИЙ ЯРОСЛАВ ОЛЕКСАНДРОВИЧ",
				"location": "Україна, 32400, Хмельницька обл., Дунаєвецький р-н, місто Дунаївці(з), вул.Червона, будинок 35",
				"capital": 9000000,
				"role": "засновник"
			},
			{
				"title": "Бернашевський Олександр Вячеславович",
				"location": "Україна, 32400, Хмельницька обл., Дунаєвецький р-н, місто Дунаївці(з), вул.Червона, будинок 33",
				"capital": null,
				"role": "Кінцевий бенефіціарний власник"
			},
			{
				"title": "Бернашевський Ярослав Олександрович",
				"location": "Україна, 32400, Хмельницька обл., Дунаєвецький р-н, місто Дунаївці(з), вул.Червона, будинок 35",
				"capital": null,
				"role": "Кінцевий бенефіціарний власник"
			},
			{
				"title": "Страхоцінський Віктор Вікторович",
				"location": "Україна, 32400, Хмельницька обл., Дунаєвецький р-н, місто Дунаївці(з), вул.Іщенка Миколи, будинок 26",
				"capital": null,
				"role": "Кінцевий бенефіціарний власник"
			}
		],
		"database_date": "2023-10-26 09:58:05",
		"pdv_code": "238465622076",
		"pdv_status": "active",
		"pdv_database_date": "2023-10-25"
	}
]